<svg width="168" height="72" viewBox="0 0 168 72" fill="none" xmlns="http://www.w3.org/2000/svg">
<path d="M17.057 0.435233C14.3826 1.43283 12.9817 3.40681 12.9817 6.20859C12.9817 8.09766 13.5548 9.37119 14.9981 10.666C18.7126 13.9984 24.4859 11.6211 24.8892 6.61187C25.1652 3.19456 22.6605 0.371557 19.2008 0.222978C18.4154 0.180527 17.5027 0.286654 17.057 0.435233Z" fill="#4B4035"/>
<path d="M150.587 0.52018C149.229 1.00837 147.573 2.74886 147.085 4.17098C146.3 6.59069 147.127 9.43491 149.08 10.9207C153.071 13.9984 158.759 11.133 158.738 6.1025C158.717 4.38323 158.165 3.06725 156.955 1.87862C155.342 0.307925 152.752 -0.24394 150.587 0.52018Z" fill="#4B4035"/>
<path d="M69.3568 3.78899C68.2319 4.00125 67.7649 4.25595 66.7036 5.2111C65.3664 6.42096 64.9419 7.39734 64.9419 9.39254C64.9419 10.8571 65.0268 11.2179 65.515 12.067C67.0008 14.5716 69.7813 15.6116 72.4982 14.6989C74.7269 13.9348 76.2127 11.7486 76.1702 9.28641C76.149 8.52229 75.9792 7.54592 75.7882 7.10018C74.7481 4.72292 71.9463 3.27958 69.3568 3.78899Z" fill="#4B4035"/>
<path d="M103.87 3.78899C102.66 3.98002 102.193 4.2135 101.089 5.2111C99.7519 6.42096 99.3274 7.39734 99.3274 9.39254C99.3274 10.8571 99.4123 11.2179 99.9005 12.067C101.386 14.5716 104.167 15.6116 106.884 14.6989C109.983 13.6377 111.49 9.79583 109.983 6.82425C108.815 4.53189 106.502 3.38571 103.87 3.78899Z" fill="#4B4035"/>
<path d="M10.4771 14.8686C8.22722 15.5054 6.35937 17.0761 5.31932 19.2623L4.66132 20.642L4.59765 30.4057C4.53397 39.9148 4.5552 40.1695 4.97971 40.7426L5.40422 41.3156L4.00333 48.7021C3.23921 52.7562 2.15671 58.572 1.58362 61.6073C1.01053 64.6425 0.394986 67.9113 0.203956 68.8664C-0.178105 70.8192 -0.0507512 71.371 0.819497 71.6045C1.43504 71.7531 2.15671 71.4135 2.30529 70.9041C2.41141 70.5432 3.19676 66.4892 6.44427 49.1054C7.59045 42.9925 7.95128 41.4642 8.24844 41.2944C9.13992 40.785 9.22482 40.0421 9.22482 32.0189C9.22482 25.354 9.26727 24.3352 9.56443 24.0593C9.96771 23.656 10.5833 23.6135 10.9016 23.9956C11.0502 24.2078 11.1351 30.7241 11.1776 46.6645C11.2412 68.8027 11.2412 69.0362 11.687 69.7791C12.9817 71.9866 15.7835 72.0715 17.3754 69.9277C17.8212 69.3334 17.8212 69.0999 17.9273 55.9613C18.0122 44.3934 18.0759 42.568 18.3518 42.3982C18.7763 42.1222 19.0523 42.1434 19.4768 42.4406C19.7951 42.6953 19.8376 43.8627 19.88 55.8764C19.9437 68.7178 19.9437 69.0575 20.3895 69.7791C21.6842 71.9866 24.486 72.0715 26.0779 69.9277C26.5237 69.3334 26.5237 69.2485 26.6298 46.7918C26.6935 34.3961 26.8208 24.1229 26.9057 23.9744C27.1816 23.5499 28.0519 23.6772 28.4127 24.1866C28.7099 24.5899 28.7523 25.7573 28.7523 32.4858V40.318L29.474 41.0397C30.4928 42.0585 31.8937 41.9949 32.7852 40.8911C33.1036 40.5091 33.2734 40.785 35.7143 45.1999C38.8982 51.0157 38.8345 50.4639 37.0728 56.9377L35.8417 61.395L37.0728 61.4587L38.3038 61.5224V65.534C38.3038 67.7415 38.3887 69.7791 38.4949 70.0551C39.1953 71.8805 41.8485 72.0078 42.74 70.2673C42.8886 69.9702 42.9735 68.2933 42.9735 65.6614V61.5012H43.7164H44.4592V65.6614C44.4592 68.2933 44.5441 69.9702 44.6927 70.2673C45.1172 71.0951 45.7752 71.4772 46.7941 71.4772C47.8129 71.4772 48.4709 71.0951 48.8954 70.2673C49.044 69.9702 49.1289 68.2933 49.1289 65.6614V61.5224L50.36 61.4587L51.591 61.395L50.3812 56.9377C48.6407 50.5912 48.6195 50.8459 51.1665 46.2188C52.2915 44.1811 53.4589 42.0585 53.7348 41.5067L54.2655 40.5303L55.0084 41.0397C56.006 41.6977 56.9823 41.6977 57.7889 41.0185C58.5955 40.3605 58.5318 40.5091 60.8242 32.7405C61.9067 29.111 62.883 26.0332 62.9892 25.8847C63.1165 25.7361 63.4137 25.63 63.6472 25.6724C64.5386 25.7998 64.7509 24.8658 58.8714 46.2188C58.1922 48.7234 57.6191 50.8459 57.6191 50.9308C57.6191 51.0157 58.9775 51.1219 60.6544 51.1431L63.6684 51.2068L63.7745 60.4399C63.8594 67.2533 63.9443 69.8003 64.1353 70.14C64.6235 70.9465 65.6211 71.5196 66.64 71.5196C67.871 71.5196 68.7837 70.9465 69.2932 69.8852C69.6964 69.0575 69.7177 68.548 69.7177 60.0366V51.0794L70.5242 51.1431L71.3096 51.2068L71.4157 60.4399C71.5006 67.508 71.5855 69.7791 71.7978 70.1612C72.7741 71.8592 75.7245 71.9229 76.8495 70.2673C77.2315 69.7154 77.2527 69.0575 77.3589 60.4399L77.465 51.2068L80.5002 51.1431C83.2596 51.1006 83.5355 51.0582 83.4294 50.7186C83.302 50.3365 81.328 43.1623 80.4366 39.9572C80.1606 38.8959 79.2055 35.4362 78.3352 32.2311C76.6584 26.1818 76.5947 25.63 77.5923 25.63C78.1654 25.63 77.9744 25.0781 80.9884 35.2876C81.7101 37.7285 82.4742 40.0421 82.6865 40.4029C83.9176 42.4194 86.9104 41.4855 86.9104 39.1082C86.9104 38.5139 85.9764 35.139 84.3845 29.96C81.5403 20.6844 81.1795 19.9415 79.0569 18.6892L77.9107 17.9888H70.6304C64.9207 17.9888 63.1802 18.0524 62.6283 18.2859C61.6732 18.6892 60.527 19.7293 59.7841 20.9179C59.211 21.8094 57.5554 26.8186 54.8385 35.9244C54.4565 37.1979 54.0957 38.3441 54.0107 38.429C53.9258 38.5139 53.6075 38.4714 53.2891 38.3441C52.2703 37.8771 51.4849 38.4714 50.1689 40.7213C49.5322 41.8038 48.6407 43.0986 48.1525 43.608L47.2822 44.5207H43.7588H40.2354L39.5349 43.9052C39.1529 43.5656 38.2189 42.2708 37.4548 41.0185C35.969 38.5351 35.1837 37.8559 34.2285 38.3016C33.9526 38.429 33.6554 38.5351 33.5281 38.5563C33.4007 38.5776 33.2734 35.3725 33.2097 29.493L33.1036 20.4297L32.4031 19.0076C31.5966 17.3732 30.3443 16.1634 28.5613 15.2931L27.3727 14.6988L19.4131 14.6563C13.5548 14.6139 11.1988 14.6776 10.4771 14.8686Z" fill="#4B4035"/>
<path d="M144.517 14.7839C142.309 15.3358 140.293 16.949 139.295 19.0078L138.595 20.4299L138.531 30.1937C138.51 35.5638 138.531 40.1697 138.595 40.4456C138.743 41.0824 139.889 41.7616 140.802 41.7616C141.311 41.7616 141.694 41.5706 142.224 41.04L142.946 40.3183V32.4861C142.946 25.7576 142.988 24.5902 143.285 24.1869C143.689 23.6138 144.559 23.5713 144.856 24.1232C145.005 24.3991 145.068 31.8281 145.068 46.6647C145.068 68.3573 145.068 68.803 145.493 69.6732C146.554 71.8807 149.823 72.093 151.16 70.0553C151.521 69.5247 151.542 68.5271 151.648 56.1313C151.754 43.2262 151.776 42.7805 152.158 42.4833C152.688 42.1012 153.028 42.1012 153.431 42.5258C153.728 42.8229 153.771 44.3299 153.771 55.9191C153.771 68.8242 153.771 68.994 154.217 69.7794C155.448 71.9444 158.653 72.0505 159.926 69.9492C160.351 69.27 160.351 68.8242 160.351 47.068C160.351 29.6631 160.414 24.7812 160.627 24.3567C160.945 23.7199 161.646 23.5713 162.134 24.0383C162.431 24.3567 162.473 25.2694 162.473 32.1677C162.473 39.4056 162.495 39.9999 162.877 40.6155C163.704 41.9527 165.593 42.1012 166.612 40.8702L167.164 40.2334L167.101 30.4272L167.037 20.6422L166.379 19.2625C165.53 17.5008 164.214 16.1848 162.473 15.357L161.094 14.699L153.134 14.6566C148.762 14.6354 144.877 14.699 144.517 14.7839Z" fill="#4B4035"/>
<path d="M96.9926 18.2859C95.5493 18.9015 93.9998 20.7269 93.363 22.4886C93.1932 22.998 92.5777 24.9295 92.0046 26.7974C91.4315 28.6652 90.3914 32.0825 89.691 34.4173C88.9693 36.7309 88.3962 38.811 88.3962 39.0445C88.3962 41.0397 90.7098 42.2496 92.1956 41.0185C92.9597 40.3605 93.0446 40.1695 95.3158 32.4221C96.3346 28.9836 97.2473 26.0333 97.3747 25.8847C97.502 25.7361 97.7992 25.63 98.0326 25.6724C98.7331 25.7785 98.6906 26.6276 97.7567 29.9175C96.6954 33.6957 92.3017 49.721 92.1107 50.5063L91.9621 51.0794L94.9974 51.1431L98.0539 51.2068L98.16 60.4399C98.2661 68.8028 98.3086 69.7367 98.6482 70.2673C99.1788 71.0951 99.9217 71.4984 100.898 71.5196C102.108 71.5409 102.851 71.18 103.466 70.2673L103.997 69.482L104.061 60.2913L104.124 51.0794L104.91 51.1431L105.695 51.2068L105.801 60.4399C105.886 67.508 105.971 69.7791 106.183 70.1612C107.16 71.8592 110.11 71.9229 111.235 70.2673C111.617 69.7155 111.638 69.0575 111.744 60.4399L111.85 51.2068L114.886 51.1431C117.645 51.1006 117.921 51.0582 117.815 50.7186C117.645 50.1879 115.841 43.608 113.315 34.4598C111.023 26.0969 110.959 25.63 111.978 25.63C112.508 25.63 112.593 25.8634 113.782 29.8751C117.051 41.0822 116.881 40.594 117.9 41.2095C118.643 41.634 119.237 41.634 120.128 41.2308C120.956 40.8275 121.296 40.1482 121.296 38.9384C121.275 38.4078 120.235 34.6721 118.77 29.8963C115.926 20.7269 115.586 19.984 113.442 18.668L112.296 17.9888H104.952C99.3911 18.01 97.4808 18.0737 96.9926 18.2859Z" fill="#4B4035"/>
<path d="M41.8061 32.4009C39.9382 33.25 38.7496 35.3301 39.0255 37.2828C39.6198 41.6765 45.5205 42.95 47.728 39.1507C48.8317 37.2828 48.6407 35.1815 47.261 33.6532C46.2847 32.5495 45.0748 31.9976 43.7164 31.9976C43.1433 31.9976 42.273 32.1887 41.8061 32.4009Z" fill="#4B4035"/>
<path d="M128.088 32.3368C124.437 33.9075 124.267 39.2139 127.791 40.9332C132.121 43.0133 136.408 38.2588 133.904 34.1834C132.757 32.3156 130.083 31.4666 128.088 32.3368Z" fill="#4B4035"/>
<path d="M124.565 43.8634C123.227 44.67 122.442 46.1345 120.001 52.3536C118.176 57.0445 118.091 57.469 118.812 58.1907C119.895 59.2732 120.956 58.7001 121.572 56.7261C123.461 50.7193 123.907 49.4033 124.055 49.4033C124.161 49.4033 124.267 53.8182 124.31 59.7826L124.373 70.1619L124.883 70.7137C125.923 71.8175 127.515 71.7963 128.576 70.6288L129.149 69.9921V65.471C129.149 63.0089 129.234 60.8439 129.34 60.6953C129.425 60.5255 129.744 60.4406 130.019 60.483L130.529 60.5467L130.635 65.2163C130.741 70.2256 130.847 70.6925 131.951 71.2868C132.524 71.6052 133.883 71.584 134.413 71.2444C135.517 70.5439 135.517 70.6076 135.517 59.6128C135.517 53.988 135.602 49.4033 135.687 49.4033C135.793 49.4033 136.515 51.1862 137.3 53.3725C138.085 55.5799 138.849 57.4902 138.955 57.6176C139.613 58.4454 141.46 57.4902 141.46 56.344C141.46 55.5375 137.427 45.328 136.854 44.6912C136.642 44.4365 136.09 44.0757 135.623 43.8634C134.88 43.5238 134.18 43.4601 129.998 43.4601C125.689 43.4601 125.159 43.5026 124.565 43.8634Z" fill="#4B4035"/>
</svg>
